…
Question 1
----------

First, lets understand the data structure. What describes the unit of
observation in the data?

### Answer

``` r
tea_data 
```

    ## # A tibble: 46,398 x 7
    ##     admin biryr   han   sex teasown  orch cashcrop
    ##     <dbl> <dbl> <dbl> <dbl>   <dbl> <dbl>    <dbl>
    ##  1 320102  1962     1  0.5        0     0     2.79
    ##  2 320102  1964     1  0          0     0     2.79
    ##  3 320102  1966     1  1          0     0     2.79
    ##  4 320102  1967     1  1          0     0     2.79
    ##  5 320102  1968     1  0.75       0     0     2.79
    ##  6 320102  1970     1  1          0     0     2.79
    ##  7 320102  1971     1  0          0     0     2.79
    ##  8 320102  1985     1  0.5        0     0     2.79
    ##  9 320102  1986     1  0.5        0     0     2.79
    ## 10 320102  1987     1  0          0     0     2.79
    ## # ... with 46,388 more rows

It appears each observation represents a cohort in each county.

``` r
tea_data %>% count(admin, biryr)
```

    ## # A tibble: 46,398 x 3
    ##     admin biryr     n
    ##     <dbl> <dbl> <int>
    ##  1 320102  1962     1
    ##  2 320102  1964     1
    ##  3 320102  1966     1
    ##  4 320102  1967     1
    ##  5 320102  1968     1
    ##  6 320102  1970     1
    ##  7 320102  1971     1
    ##  8 320102  1985     1
    ##  9 320102  1986     1
    ## 10 320102  1987     1
    ## # ... with 46,388 more rows
…
