…
Since schools were randomly assigned to the deworming treatment group,
the estimate calculated in the previous answer is an unbiased estimate
of taking the pill on school attendance.

### Answer

There are students in schools assigned to deworming but did not get the
pill:

``` r
nutrition %>% 
    filter((pill98 == 0) & (treat_sch98 == 1))
```

    ## # A tibble: 3,461 x 10
    ##     pupid pill98 pill99 grade98   sex old_girl98 totpar98  wgrp treat_sch98
    ##     <dbl>  <dbl>  <dbl>   <dbl> <dbl>      <dbl>    <dbl> <dbl>       <dbl>
    ##  1 1.08e6      0      0       4    NA          0    NA        1           1
    ##  2 1.09e6      0      0       1    NA          0    NA        1           1
    ##  3 1.09e6      0      0       4     1          0     0        1           1
    ##  4 1.09e6      0      0       5     1          0    NA        1           1
    ##  5 1.09e6      0      0       5     1          0    NA        1           1
    ##  6 1.09e6      0      0       5     0          0    NA        1           1
    ##  7 1.09e6      0      0       5     1          0    NA        1           1
    ##  8 1.09e6      0      0       4     1          0    NA        1           1
    ##  9 1.09e6      0      0       4     0          1     0.75     1           1
    ## 10 1.09e6      0      1       3     0          0     1        1           1
    ## # ... with 3,451 more rows, and 1 more variable: infect_early99 <dbl>
…
