…
``` r
# Read and view the data
paxson <- read_dta("paxson.dta")
paxson
```

    ## # A tibble: 4,855 x 44
    ##       hid   save3  year region   inc  save1  save2   m12   m18   m65 m18elem
    ##     <dbl>   <dbl> <dbl>  <dbl> <dbl>  <dbl>  <dbl> <dbl> <dbl> <dbl>   <dbl>
    ##  1 1.21e8 -2998.     76     19 3263. -577.  -397.      0     0     1       1
    ##  2 2.21e8   251.     76     32 1891.   31.3  289.      1     2     1       0
    ##  3 2.11e8   677.     76     26  864. -623.    58.8     1     0     0       1
    ##  4 3.21e8   758.     76     28 7454. 2340.  2691.      0     1     0       2
    ##  5 2.11e8   -45.0    76     26 1110.  232.   236.      0     0     0       1
    ##  6 1.21e8  5523.     76     19 5375. 1000.  1697.      0     0     0       1
    ##  7 3.20e8 -1421.     76     29 2481. -447.   566.      1     0     1       1
    ##  8 2.11e8   225.     76     14 1158.   84.4  309.      0     0     0       1
    ##  9 2.11e8   663.     76     26 1475.  -59.1  194.      0     0     0       1
    ## 10 2.22e8  -594.     76     26  810. -405.   -62.9     0     0     0       1
    ## # ... with 4,845 more rows, and 33 more variables: m18sec <dbl>, m18pos <dbl>,
    ## #   f12 <dbl>, f18 <dbl>, f65 <dbl>, f18elem <dbl>, f18sec <dbl>, f18pos <dbl>,
    ## #   of1 <dbl>, of2 <dbl>, of3 <dbl>, of4 <dbl>, of5 <dbl>, p0to5 <dbl>,
    ## #   p6to11 <dbl>, p12to17 <dbl>, p18to64 <dbl>, p65 <dbl>, of0 <dbl>,
    ## #   month <dbl>, cpi <dbl>, dev1 <dbl>, dev2 <dbl>, dev3 <dbl>, dev4 <dbl>,
    ## #   sd1 <dbl>, sd2 <dbl>, sd3 <dbl>, sd4 <dbl>, dvsq1 <dbl>, dvsq2 <dbl>,
    ## #   dvsq3 <dbl>, dvsq4 <dbl>
…
Let’s use the `tidy()` command from the package `broom` to extract the
coefficients of the above regression.

``` r
coefs <- tidy(reginc) %>% 
  select(term, estimate)
coefs
```

    ## # A tibble: 50 x 2
    ##    term           estimate
    ##    <chr>             <dbl>
    ##  1 (Intercept) 2456.      
    ##  2 year_81      302.      
    ##  3 year_86     -402.      
    ##  4 dev1           1.91    
    ##  5 dvsq1         -0.0450  
    ##  6 dev2           1.25    
    ##  7 dvsq2          0.000877
    ##  8 dev3           0.228   
    ##  9 dvsq3          0.000445
    ## 10 dev4           1.61    
    ## # ... with 40 more rows
…
