…
``` r
# Load required packages
library(tidyverse)
library(stargazer)
```

``` r
# Load the data:
mitadata <- read_csv("mitaData_corrected.csv")
mitadata
```

    ## # A tibble: 1,478 x 48
    ##    conglome vivienda hogar district male    age  ccdd  ccpp  ccdi hid   hhmem
    ##       <dbl>    <dbl> <dbl>    <dbl> <chr> <dbl> <dbl> <dbl> <dbl> <chr> <dbl>
    ##  1      174       36    11    30101 male     34     3     1     1 174 ~     4
    ##  2      176       53    11    30101 fema~    60     3     1     1 176 ~     3
    ##  3      168      130    11    30101 male     45     3     1     1 1681~     6
    ##  4      174       14    11    30101 male     35     3     1     1 174 ~     4
    ##  5      173       68    11    30101 fema~    46     3     1     1 173 ~     3
    ##  6      172       28    11    30101 male     39     3     1     1 172 ~     4
    ##  7      173       32    11    30101 male     54     3     1     1 173 ~     5
    ##  8      169       45    11    30101 male     49     3     1     1 169 ~     7
    ##  9      175       27    11    30101 male     38     3     1     1 175 ~     4
    ## 10      173       57    11    30101 fema~    69     3     1     1 173 ~     1
    ## # ... with 1,468 more rows, and 37 more variables: lhhmem <dbl>, kids <dbl>,
    ## #   k_hhmem <dbl>, infants <dbl>, children <dbl>, adults <dbl>, ces <dbl>,
    ## #   depprov <dbl>, hconsump <dbl>, hconsumplm <dbl>, hhequiv <dbl>,
    ## #   lhhequiv <dbl>, lhhconsplm <dbl>, CAST <chr>, QUE <dbl>, AYM <dbl>,
    ## #   near_x <dbl>, near_y <dbl>, cusco <dbl>, pothuan_mita <dbl>, border <dbl>,
    ## #   d_bnd <dbl>, bfe4_1 <dbl>, bfe4_2 <dbl>, bfe4_3 <dbl>, elv_sh <dbl>,
    ## #   slope <dbl>, near_dist <dbl>, dpot <dbl>, lat <dbl>, lon <dbl>,
    ## #   dbnd_sh <dbl>, dbnd_sh2 <dbl>, dbnd_sh3 <dbl>, dbnd_sh4 <dbl>, x <dbl>,
    ## #   y <dbl>
…
