…
Question 1
----------

What is the Mean of **GDP per capita**? What is the standard deviation
of GDP per capita? (Please round to the nearest whole number. For
instance, 1235 would be accepted if the correct answer 1234.56)

### Answer

``` r
devt
```

    ## # A tibble: 214 x 7
    ##    countrycode countryname gdp_per_capita literacy_female literacy_male
    ##    <chr>       <chr>                <dbl>           <dbl>         <dbl>
    ##  1 ABW         Aruba               19913.            96.7          96.9
    ##  2 ADO         Andorra             35628.            NA            NA  
    ##  3 AFG         Afghanistan           415.            17.6          45.4
    ##  4 AGO         Angola               2738.            59.1          82.5
    ##  5 ALB         Albania              4091.            95.7          98.0
    ##  6 ARE         United Ara~         25141.            91.5          89.5
    ##  7 ARG         Argentina            6195.            98.0          97.9
    ##  8 ARM         Armenia              2310.            99.5          99.7
    ##  9 ASM         American S~            NA             NA            NA  
    ## 10 ATG         Antigua an~         11481.            99.4          98.4
    ## # ... with 204 more rows, and 2 more variables: literacy_all <dbl>,
    ## #   infant_mortality <dbl>
…
